FIP606 Para Dummies - Visualización de Datos con ggplot
…
DT::datatable: Esta función de DT permite visualizar el dataframe pepper como una tabla interactiva en HTML, con opciones para exportar a Excel o CSV.

4. Transformación de Datos con pivot_longer

Codigo

pepper_dat <- pepper |> 
              pivot_longer(2:4, names_to = "epidemic", values_to = "inc")
pepper_dat 

# A tibble: 24 × 3
       t epidemic   inc
   <dbl> <chr>    <dbl>
 1     0 1        0.08 
 2     0 2        0.001
 3     0 3        0.001
 4     7 1        0.13 
 5     7 2        0.01 
 6     7 3        0.001
 7    14 1        0.78 
 8    14 2        0.09 
 9    14 3        0.01 
10    21 1        0.92 
# ℹ 14 more rows
…
