FIP606 Para Dummies
…
# Mostrar datos en una tabla
Almacenes

# A tibble: 30 × 6
   City       Almacen           Latitude Longitude Origen    Distancia
   <chr>      <chr>                <dbl>     <dbl> <chr>         <int>
 1 Aguadas    Aguadas               5.61     -75.5 Manizales        94
 2 Anserma    Anserma               5.23     -75.8 Manizales        68
 3 Aranzazu   Aranzazu              5.27     -75.5 Manizales        52
 4 Arauca     Arauca                5.11     -75.7 Manizales        40
 5 Belalcázar Belalcázar            4.99     -75.8 Manizales        73
 6 Chinchiná  Chinchiná             4.98     -75.6 Manizales        25
 7 Chinchiná  Express Chinchiná     4.98     -75.6 Manizales        25
 8 Filadelfia Filadelfia            5.30     -75.6 Manizales        50
 9 Florencia  Florencia             5.52     -75.0 Manizales        76
10 La Merced  La Merced             5.40     -75.5 Manizales        87
# ℹ 20 more rows
…
