FIP606 Para Dummies - Data frames o Tablas en RStudio
…
 [1]  4  4  7  7  8  9 10 10 10 11 11 12 12 12 12 13 13 13 13 14 14 14 14 15 15
[26] 15 16 16 17 17 17 18 18 18 18 19 19 19 20 20 20 20 20 22 23 24 24 24 24 25

Para crear un data frame de un paquete, basta con cargar el paquete y luego asignarlo. Como ya se mencionó, para asignar una función a otra, basta usar <-. Ej.: buscar en packages el paquete r4pde y cargarlo (usando la función library), dentro del cuadro de ayuda de este paquete, es posible encontrar los data frames incorporados, como RustSoybean. Para usar este cuadro de datos, basta usar la función de asignación.

Codigo

library(r4pde)
df <- RustSoybean
df

# A tibble: 34 × 7
   epidemia latitude longitude local              planting   detection  severity
      <dbl>    <dbl>     <dbl> <chr>              <date>     <date>        <dbl>
 1       23    -23.0     -50.1 Cambara            2003-11-25 2004-02-02     24  
 2       24    -24.0     -52.4 Campo Mourao       2003-11-28 2004-02-02     21  
 3       31    -15.5     -55.2 Campo Verde        2004-11-20 2005-01-25     78  
 4        3    -13.3     -44.6 Correntina         2002-11-10 2003-01-03     85  
 5       15    -13.3     -44.6 Correntina         2003-11-28 2004-01-31     25  
 6       34    -25.4     -51.5 Guarapuava         2004-11-29 2005-03-14     32  
 7        7    -29.2     -53.7 Julio Castilhos    2002-12-15 2003-04-10     40  
 8       13    -12.1     -45.8 Luis Eduardo Maga… 2003-11-12 2004-02-15     39.2
 9       33    -12.1     -45.8 Luis Eduardo Maga… 2004-11-19 2005-01-25     55  
10        1    -23.3     -51.2 Londrina           2002-11-06 2003-02-03     45  
# ℹ 24 more rows
…
Datos en formato csv y txt (paquete readr)

El paquete readr del tidyverse es utilizado para importar archivos de texto, como .txt o .csv, para R y su carga se hace, al igual que los demás, con la función library. Readr transforma archivos de texto en tibbles usando funciones como: read.csv() o read_csv() - usadas para importar archivos de valores separados por comas y con la primera línea de los datos con los nombres de las variables. read.csv2 o read_csv2() - usada para importar bases de archivos separados por punto y coma en R. En algunos países, como Brasil, las comas se utilizan para separar las casas decimales de los números, haciendo inviable el uso de archivos .csv. En estos casos, cuando la coma es el separador decimal, los archivos .csv pasan a ser separados por punto y coma, así, esta función asume que los datos son separados por ; y que una coma es usada en lugar de un punto decimal.

CSV:

Codigo

library(tidyverse)

# usando read_csv
magnesio3 <- read_csv("dados-diversos.csv")
magnesio3

# A tibble: 60 × 4
   Irrigation   rep   day severity
   <chr>      <dbl> <dbl>    <dbl>
 1 Furrow         1     0     0.01
 2 Furrow         2     0     0.01
 3 Furrow         3     0     0.01
 4 Furrow         1     7     0.04
 5 Furrow         2     7     0.04
 6 Furrow         3     7     0.04
 7 Furrow         1    14     0.1 
 8 Furrow         2    14     0.1 
 9 Furrow         3    14     0.11
10 Furrow         1    21     0.11
# ℹ 50 more rows
…
Nota: El argumento header = TRUE especifica que la primera línea de los datos contiene el nombre de las variables (ej. magnesio, nitrogenio), si este no es el caso, solo usa el argumento header = FALSE.

Datos en hojas de cálculo de Google Sheets

Para importar hojas de cálculo de Google, usa la función gsheet2tbl (read_sheet), presente en el paquete googlesheets4 o el paquete gsheet. Como estos paquetes tampoco son parte del conjunto tidyverse, necesitas cargarlos para usarlos. La función gsheet2tbl lee el archivo (hoja de cálculo de Google) a partir de una URL (copias y pegas el enlace de la hoja de cálculo deseada).

Codigo

# usando el paquete gsheet
library(gsheet)

survey <- gsheet2tbl("https://docs.google.com/spreadsheets/d/1aID5Dh6PlBVCKzU1j7k-WA6zuWQWE2NhtWEgdJtt5iA/edit#gid=366054269")
survey 

# A tibble: 450 × 5
    year residue   inc inc_class species
   <dbl> <chr>   <dbl> <chr>     <chr>  
 1  2011 soybean     1 low       Fgra   
 2  2011 soybean     1 low       Fgra   
 3  2011 soybean     1 low       Fgra   
 4  2011 soybean     1 low       Fgra   
 5  2011 soybean     1 low       Fgra   
 6  2011 soybean     1 low       Fgra   
 7  2011 corn        1 low       Fgra   
 8  2010 soybean     2 low       Fspp   
 9  2010 corn        2 low       Fgra   
10  2011 soybean     2 low       Fgra   
# ℹ 440 more rows
…
