FIP606 Para Dummies - FIP606-Proyecto: Análisis de Datos
…
Area Bajo la curva

Codigo

dat_1<-dat%>%
  group_by(Evaluacion,Time_E,Parcela,Arbol) %>%
  summarize(Incidencia = mean(Inc_promedio,na.rm=TRUE))
dat_1

# A tibble: 3,600 × 5
# Groups:   Evaluacion, Time_E, Parcela [45]
   Evaluacion Time_E Parcela   Arbol Incidencia
   <chr>       <int> <chr>     <int>      <dbl>
 1 1_Mitaca       26 Parcela_1     1       30.4
 2 1_Mitaca       26 Parcela_1     2       31.0
 3 1_Mitaca       26 Parcela_1     3       37.4
 4 1_Mitaca       26 Parcela_1     4       21.7
 5 1_Mitaca       26 Parcela_1     5       21.6
 6 1_Mitaca       26 Parcela_1     6       27.3
 7 1_Mitaca       26 Parcela_1     7       39.6
 8 1_Mitaca       26 Parcela_1     8       13.8
 9 1_Mitaca       26 Parcela_1     9       38.8
10 1_Mitaca       26 Parcela_1    10       55.2
# ℹ 3,590 more rows

Codigo

dat_audps <- dat_1 %>%
          group_by(Parcela,Arbol) %>%
          summarize(audps = AUDPS(Time_E,Incidencia,))
dat_audps

# A tibble: 240 × 3
# Groups:   Parcela [3]
   Parcela   Arbol   audps
   <chr>     <int>   <dbl>
 1 Parcela_1     1 -5528. 
 2 Parcela_1     2   -59.2
 3 Parcela_1     3 -1978. 
 4 Parcela_1     4 -8044. 
 5 Parcela_1     5 -5731. 
 6 Parcela_1     6 -6888. 
 7 Parcela_1     7 -5000. 
 8 Parcela_1     8 -5127. 
 9 Parcela_1     9  -972. 
10 Parcela_1    10  3139. 
# ℹ 230 more rows

Codigo

t<-425

dat1_audpc <- dat_audps %>%
  mutate(audpc2 = audps / t)
dat1_audpc 

# A tibble: 240 × 4
# Groups:   Parcela [3]
   Parcela   Arbol   audps  audpc2
   <chr>     <int>   <dbl>   <dbl>
 1 Parcela_1     1 -5528.  -13.0  
 2 Parcela_1     2   -59.2  -0.139
 3 Parcela_1     3 -1978.   -4.65 
 4 Parcela_1     4 -8044.  -18.9  
 5 Parcela_1     5 -5731.  -13.5  
 6 Parcela_1     6 -6888.  -16.2  
 7 Parcela_1     7 -5000.  -11.8  
 8 Parcela_1     8 -5127.  -12.1  
 9 Parcela_1     9  -972.   -2.29 
10 Parcela_1    10  3139.    7.39 
# ℹ 230 more rows
…
